sim/behav/simulation.log
xrun(64): 25.03-s003: (c) Copyright 1995-2025 Cadence Design Systems, Inc.
TOOL:	xrun(64)	25.03-s003: Started on Nov 01, 2025 at 07:38:05 EDT
xrun
	-uvmhome /tools/software/cadence/xcelium/latest/tools/methodology/UVM/CDNS-1.1d
	-64bit
	-sv
	-linedebug
	-access +rwc
	-timescale 1ns/10ps
	-coverage all
	-licqueue
	-covoverwrite
	+UVM_MAX_QUIT_COUNT=1
	+UVM_TESTNAME=all_gcd_test
	+UVM_VERBOSITY=UVM_FULL
	+define++SIM=1
	-incdir src/uvm/tests
	-incdir src/uvm/agent
	-incdir src/uvm/sequences
	-incdir src/uvm/env
	-incdir src/uvm/tb
	src/sv/rtl/gcd_pkg.sv
	src/sv/rtl/gcd.sv
	src/uvm/sequences/gcd_seq_pkg.sv
	src/uvm/agent/gcd_agent_pkg.sv
	src/uvm/env/gcd_env_pkg.sv
	src/uvm/tests/gcd_test_pkg.sv
	src/uvm/tb/gcd_if.sv
	src/uvm/tb/gcd_tb_top.sv
	-top gcd_tb_top
	-logfile simulation.log

   User defined plus("+") options:
	+UVM_MAX_QUIT_COUNT=1
	+UVM_VERBOSITY=UVM_FULL

xrun: *W,BADPRF: The -linedebug option may have an adverse performance impact.
Compiling UVM packages (uvm_pkg.sv cdns_uvm_pkg.sv) using uvmhome location /tools/software/cadence/xcelium/latest/tools/methodology/UVM/CDNS-1.1d
file: src/sv/rtl/gcd_pkg.sv
	package worklib.gcd_pkg:sv
		errors: 0, warnings: 0
file: src/sv/rtl/gcd.sv
	module worklib.gcd:sv
		errors: 0, warnings: 0
file: src/uvm/sequences/gcd_seq_pkg.sv
	package worklib.gcd_seq_pkg:sv
		errors: 0, warnings: 0
file: src/uvm/agent/gcd_agent_pkg.sv
	package worklib.gcd_agent_pkg:sv
		errors: 0, warnings: 0
file: src/uvm/env/gcd_env_pkg.sv
	package worklib.gcd_env_pkg:sv
		errors: 0, warnings: 0
file: src/uvm/tests/gcd_test_pkg.sv
	package worklib.gcd_test_pkg:sv
		errors: 0, warnings: 0
file: src/uvm/tb/gcd_if.sv
	interface worklib.gcd_if:sv
		errors: 0, warnings: 0
file: src/uvm/tb/gcd_tb_top.sv
	module worklib.gcd_tb_top:sv
		errors: 0, warnings: 0
xmvlog: *W,SPDUSD: Include directory src/uvm/tb given but not used.
	Total errors/warnings found outside modules and primitives:
		errors: 0, warnings: 1
	Elaborating the design hierarchy:
		Caching library 'worklib' ....... Done
	Top level design units:
		uvm_pkg
		cdns_uvmapi
		cdns_assert2uvm_pkg
		cdns_uvm_pkg
		gcd_seq_pkg
		gcd_agent_pkg
		gcd_env_pkg
		gcd_test_pkg
		gcd_pkg
		gcd_tb_top

	Extracting FSMs for coverage:
		worklib.gcd
			FSM extracted for state register state_r
		worklib.gcd_tb_top
	Total FSMs extracted = 1
	Building instance overlay tables: ....................
xmelab: *W,COVFDP: FSM description matching across instance of a module for "COVFDM" warning has been moved from elaboration to simulation dumping. To restore old matching behavior, use "set_backward_compat -COVFDM_during_elab". Also, it is recommended to use set_parameterized_module_coverage CCF command to avoid coverage loss due to FSM description difference across instances of a module.
xmelab: *W,COVFHT: FSM hold transitions (transitions to the current state) are not extracted for any FSM in default mode.
 Done
	Enabling instrumentation for coverage types: block expression FSM toggle functional
xmelab: *W,COVDCL: By default expression coverage is scored only for Verilog logical operators (|| and &&) and VHDL logical operators (OR, AND, NOR, and NAND), and is scored only in condition expressions. To score coverage for other operators and for expressions in other statements, use the "set_expr_coverable_operators" and "set_expr_coverable_statements" coverage configuration file commands with suitable options at elaboration.
	Generating native compiled code:
		worklib.gcd:sv <0x62e96140>
			streams:  22, words: 17371
		worklib.gcd_tb_top:sv <0x4e60520a>
			streams: 554, words: 791211
		worklib.gcd_seq_pkg:sv <0x3785a46c>
			streams: 395, words: 682293
		worklib.cdns_uvm_pkg:sv <0x2b4d36f9>
			streams: 183, words: 393706
		worklib.cdns_uvmapi:svp <0x7cc18139>
			streams:  27, words: 46418
		worklib.cdns_assert2uvm_pkg:sv <0x30b4c726>
			streams:   3, words:  3144
		worklib.uvm_pkg:sv <0x0f6eb221>
			streams: 5407, words: 12202663
xmelab: *W,COVNOEN: By default, toggle coverage is not supported for systemverilog enumerated nets and variables. To enable toggle coverage of these objects, specify the 'set_toggle_scoring -sv_enum' command in the coverage configuration file.
	Building instance specific data structures.
	Loading native compiled code:     .................... Done
	Design hierarchy summary:
		                        Instances  Unique
		Modules:                        2       2
		Interfaces:                     1       1
		Verilog packages:               9       9
		Registers:                 14,520  10,416
		Scalar wires:                   7       -
		Vectored wires:                 4       -
		Named events:                   4      12
		Always blocks:                  4       4
		Initial blocks:               324     170
		Parallel blocks:               26      27
		Pseudo assignments:             9       -
		Assertions:                     2       2
		SV Class declarations:        211     325
		SV Class specializations:     407     407
		Simulation timescale:       100ps
	Writing initial simulation snapshot: worklib.gcd_tb_top:sv
Loading snapshot worklib.gcd_tb_top:sv .................... Done
SVSEED default: 1
xcelium> source /tools/software/cadence/xcelium/latest/tools/xcelium/files/xmsimrc
xcelium> source /tools/software/cadence/xcelium/latest/tools/methodology/UVM/CDNS-1.1d/additions/sv/files/tcl/uvm_sim.tcl
xcelium> run
----------------------------------------------------------------
CDNS-UVM-1.1d (25.03-s003)
(C) 2007-2013 Mentor Graphics Corporation
(C) 2007-2013 Cadence Design Systems, Inc.
(C) 2006-2013 Synopsys, Inc.
(C) 2011-2013 Cypress Semiconductor Corp.
----------------------------------------------------------------

  ***********       IMPORTANT RELEASE NOTES         ************

  You are using a version of the UVM library that has been compiled
  with `UVM_NO_DEPRECATED undefined.
  See http://www.eda.org/svdb/view.php?id=3313 for more details.

  You are using a version of the UVM library that has been compiled
  with `UVM_OBJECT_MUST_HAVE_CONSTRUCTOR undefined.
  See http://www.eda.org/svdb/view.php?id=3770 for more details.

      (Specify +UVM_NO_RELNOTES to turn off this notice)

UVM_INFO @ 0: reporter [RNTST] Running test all_gcd_test...
UVM_INFO @ 0: reporter [MAXQUITSET] '+UVM_MAX_QUIT_COUNT=1' provided on the command line is being applied.
UVM_INFO @ 0: reporter [UVMTOP] UVM testbench topology:
------------------------------------------------------------------
Name                        Type                    Size  Value   
------------------------------------------------------------------
uvm_test_top                all_gcd_test            -     @2474   
  env                       gcd_env                 -     @2547   
    agent                   gcd_agent               -     @2579   
      drv                   gcd_driver              -     @2772   
        rsp_port            uvm_analysis_port       -     @2872   
          recording_detail  uvm_verbosity           32    UVM_FULL
        seq_item_port       uvm_seq_item_pull_port  -     @2821   
          recording_detail  uvm_verbosity           32    UVM_FULL
        recording_detail    uvm_verbosity           32    UVM_FULL
      mon                   gcd_monitor             -     @2691   
        ap                  uvm_analysis_port       -     @2742   
          recording_detail  uvm_verbosity           32    UVM_FULL
        recording_detail    uvm_verbosity           32    UVM_FULL
      seqr                  gcd_sequencer           -     @2902   
        rsp_export          uvm_analysis_export     -     @2960   
          recording_detail  uvm_verbosity           32    UVM_FULL
        seq_item_export     uvm_seq_item_pull_imp   -     @3508   
          recording_detail  uvm_verbosity           32    UVM_FULL
        recording_detail    uvm_verbosity           32    UVM_FULL
        arbitration_queue   array                   0     -       
        lock_queue          array                   0     -       
        num_last_reqs       integral                32    'd1     
        num_last_rsps       integral                32    'd1     
      recording_detail      uvm_verbosity           32    UVM_FULL
    sb                      gcd_sb                  -     @2577   
      analysis_export       uvm_analysis_imp        -     @2659   
        recording_detail    uvm_verbosity           32    UVM_FULL
      recording_detail      uvm_verbosity           32    UVM_FULL
    recording_detail        uvm_verbosity           32    UVM_FULL
------------------------------------------------------------------

UVM_INFO src/uvm/tests/gcd_base_test.svh(49) @ 0: uvm_test_top [all_gcd_test] Start of simulation for uvm_test_top
UVM_INFO src/uvm/tests/gcd_test_lib.sv(156) @ 0: uvm_test_top [all_gcd_test] Starting simple_gcd_seq
SDI/Verilog Transaction Recording Facility Version 25.03-s003
UVM_INFO /tools/software/cadence/xcelium/latest/tools/methodology/UVM/CDNS-1.1d/sv/src/seq/uvm_sequencer_base.svh(1385) @ 0: uvm_test_top.env.agent.seqr [PHASESEQ] No default phase sequence for phase 'run'
UVM_INFO src/uvm/sequences/gcd_seq_lib.sv(29) @ 0: uvm_test_top.env.agent.seqr@@simple_seq [simple_gcd_seq] Executing simple sequence
UVM_INFO /tools/software/cadence/xcelium/latest/tools/methodology/UVM/CDNS-1.1d/sv/src/seq/uvm_sequencer_base.svh(1385) @ 0: uvm_test_top.env.agent.seqr [PHASESEQ] No default phase sequence for phase 'pre_reset'
UVM_INFO /tools/software/cadence/xcelium/latest/tools/methodology/UVM/CDNS-1.1d/sv/src/seq/uvm_sequencer_base.svh(1385) @ 0: uvm_test_top.env.agent.seqr [PHASESEQ] No default phase sequence for phase 'reset'
UVM_INFO /tools/software/cadence/xcelium/latest/tools/methodology/UVM/CDNS-1.1d/sv/src/seq/uvm_sequencer_base.svh(1385) @ 0: uvm_test_top.env.agent.seqr [PHASESEQ] No default phase sequence for phase 'post_reset'
UVM_INFO /tools/software/cadence/xcelium/latest/tools/methodology/UVM/CDNS-1.1d/sv/src/seq/uvm_sequencer_base.svh(1385) @ 0: uvm_test_top.env.agent.seqr [PHASESEQ] No default phase sequence for phase 'pre_configure'
UVM_INFO /tools/software/cadence/xcelium/latest/tools/methodology/UVM/CDNS-1.1d/sv/src/seq/uvm_sequencer_base.svh(1385) @ 0: uvm_test_top.env.agent.seqr [PHASESEQ] No default phase sequence for phase 'configure'
UVM_INFO /tools/software/cadence/xcelium/latest/tools/methodology/UVM/CDNS-1.1d/sv/src/seq/uvm_sequencer_base.svh(1385) @ 0: uvm_test_top.env.agent.seqr [PHASESEQ] No default phase sequence for phase 'post_configure'
UVM_INFO /tools/software/cadence/xcelium/latest/tools/methodology/UVM/CDNS-1.1d/sv/src/seq/uvm_sequencer_base.svh(1385) @ 0: uvm_test_top.env.agent.seqr [PHASESEQ] No default phase sequence for phase 'pre_main'
UVM_INFO /tools/software/cadence/xcelium/latest/tools/methodology/UVM/CDNS-1.1d/sv/src/seq/uvm_sequencer_base.svh(1385) @ 0: uvm_test_top.env.agent.seqr [PHASESEQ] No default phase sequence for phase 'main'
UVM_INFO /tools/software/cadence/xcelium/latest/tools/methodology/UVM/CDNS-1.1d/sv/src/seq/uvm_sequencer_base.svh(1385) @ 0: uvm_test_top.env.agent.seqr [PHASESEQ] No default phase sequence for phase 'post_main'
UVM_INFO /tools/software/cadence/xcelium/latest/tools/methodology/UVM/CDNS-1.1d/sv/src/seq/uvm_sequencer_base.svh(1385) @ 0: uvm_test_top.env.agent.seqr [PHASESEQ] No default phase sequence for phase 'pre_shutdown'
UVM_INFO /tools/software/cadence/xcelium/latest/tools/methodology/UVM/CDNS-1.1d/sv/src/seq/uvm_sequencer_base.svh(1385) @ 0: uvm_test_top.env.agent.seqr [PHASESEQ] No default phase sequence for phase 'shutdown'
UVM_INFO /tools/software/cadence/xcelium/latest/tools/methodology/UVM/CDNS-1.1d/sv/src/seq/uvm_sequencer_base.svh(1385) @ 0: uvm_test_top.env.agent.seqr [PHASESEQ] No default phase sequence for phase 'post_shutdown'
UVM_INFO src/uvm/env/gcd_sb.sv(53) @ 8100: uvm_test_top.env.sb [SB] Match: A=239 B=231 GCD=1
UVM_INFO src/uvm/agent/gcd_monitor.sv(51) @ 8100: uvm_test_top.env.agent.mon [MON] Observed: A=239 B=231 GCD=1
UVM_INFO src/uvm/tests/gcd_test_lib.sv(160) @ 8100: uvm_test_top [all_gcd_test] Completed simple_gcd_seq
UVM_INFO src/uvm/tests/gcd_test_lib.sv(156) @ 8100: uvm_test_top [all_gcd_test] Starting gcd_randomN_seq
UVM_INFO src/uvm/sequences/gcd_seq_lib.sv(52) @ 8100: uvm_test_top.env.agent.seqr@@randomN_seq [gcd_randomN_seq] Running 200 randomized items
UVM_INFO src/uvm/env/gcd_sb.sv(53) @ 11100: uvm_test_top.env.sb [SB] Match: A=94 B=61 GCD=1
UVM_INFO src/uvm/agent/gcd_monitor.sv(51) @ 11100: uvm_test_top.env.agent.mon [MON] Observed: A=94 B=61 GCD=1
UVM_INFO src/uvm/env/gcd_sb.sv(53) @ 13100: uvm_test_top.env.sb [SB] Match: A=64 B=240 GCD=16
UVM_INFO src/uvm/agent/gcd_monitor.sv(51) @ 13100: uvm_test_top.env.agent.mon [MON] Observed: A=64 B=240 GCD=16
UVM_INFO src/uvm/env/gcd_sb.sv(53) @ 15700: uvm_test_top.env.sb [SB] Match: A=216 B=184 GCD=8
UVM_INFO src/uvm/agent/gcd_monitor.sv(51) @ 15700: uvm_test_top.env.agent.mon [MON] Observed: A=216 B=184 GCD=8
UVM_INFO src/uvm/env/gcd_sb.sv(53) @ 18500: uvm_test_top.env.sb [SB] Match: A=37 B=58 GCD=1
UVM_INFO src/uvm/agent/gcd_monitor.sv(51) @ 18500: uvm_test_top.env.agent.mon [MON] Observed: A=37 B=58 GCD=1
UVM_INFO src/uvm/env/gcd_sb.sv(53) @ 21500: uvm_test_top.env.sb [SB] Match: A=39 B=162 GCD=3
UVM_INFO src/uvm/agent/gcd_monitor.sv(51) @ 21500: uvm_test_top.env.agent.mon [MON] Observed: A=39 B=162 GCD=3
UVM_INFO src/uvm/env/gcd_sb.sv(53) @ 26500: uvm_test_top.env.sb [SB] Match: A=222 B=242 GCD=2
UVM_INFO src/uvm/agent/gcd_monitor.sv(51) @ 26500: uvm_test_top.env.agent.mon [MON] Observed: A=222 B=242 GCD=2
UVM_INFO src/uvm/env/gcd_sb.sv(53) @ 29900: uvm_test_top.env.sb [SB] Match: A=75 B=86 GCD=1
UVM_INFO src/uvm/agent/gcd_monitor.sv(51) @ 29900: uvm_test_top.env.agent.mon [MON] Observed: A=75 B=86 GCD=1
UVM_INFO src/uvm/env/gcd_sb.sv(53) @ 34700: uvm_test_top.env.sb [SB] Match: A=109 B=116 GCD=1
UVM_INFO src/uvm/agent/gcd_monitor.sv(51) @ 34700: uvm_test_top.env.agent.mon [MON] Observed: A=109 B=116 GCD=1
UVM_INFO src/uvm/env/gcd_sb.sv(53) @ 37500: uvm_test_top.env.sb [SB] Match: A=67 B=30 GCD=1
UVM_INFO src/uvm/agent/gcd_monitor.sv(51) @ 37500: uvm_test_top.env.agent.mon [MON] Observed: A=67 B=30 GCD=1
UVM_INFO src/uvm/env/gcd_sb.sv(53) @ 42500: uvm_test_top.env.sb [SB] Match: A=207 B=221 GCD=1
UVM_INFO src/uvm/agent/gcd_monitor.sv(51) @ 42500: uvm_test_top.env.agent.mon [MON] Observed: A=207 B=221 GCD=1
UVM_INFO src/uvm/env/gcd_sb.sv(53) @ 46700: uvm_test_top.env.sb [SB] Match: A=17 B=176 GCD=1
UVM_INFO src/uvm/agent/gcd_monitor.sv(51) @ 46700: uvm_test_top.env.agent.mon [MON] Observed: A=17 B=176 GCD=1
UVM_INFO src/uvm/env/gcd_sb.sv(53) @ 49900: uvm_test_top.env.sb [SB] Match: A=7 B=60 GCD=1
UVM_INFO src/uvm/agent/gcd_monitor.sv(51) @ 49900: uvm_test_top.env.agent.mon [MON] Observed: A=7 B=60 GCD=1
UVM_INFO src/uvm/env/gcd_sb.sv(53) @ 62900: uvm_test_top.env.sb [SB] Match: A=179 B=176 GCD=1
UVM_INFO src/uvm/agent/gcd_monitor.sv(51) @ 62900: uvm_test_top.env.agent.mon [MON] Observed: A=179 B=176 GCD=1
UVM_INFO src/uvm/env/gcd_sb.sv(53) @ 65100: uvm_test_top.env.sb [SB] Match: A=20 B=11 GCD=1
UVM_INFO src/uvm/agent/gcd_monitor.sv(51) @ 65100: uvm_test_top.env.agent.mon [MON] Observed: A=20 B=11 GCD=1
UVM_INFO src/uvm/env/gcd_sb.sv(53) @ 67500: uvm_test_top.env.sb [SB] Match: A=42 B=32 GCD=2
UVM_INFO src/uvm/agent/gcd_monitor.sv(51) @ 67500: uvm_test_top.env.agent.mon [MON] Observed: A=42 B=32 GCD=2
UVM_INFO src/uvm/env/gcd_sb.sv(53) @ 72900: uvm_test_top.env.sb [SB] Match: A=245 B=27 GCD=1
UVM_INFO src/uvm/agent/gcd_monitor.sv(51) @ 72900: uvm_test_top.env.agent.mon [MON] Observed: A=245 B=27 GCD=1
UVM_INFO src/uvm/env/gcd_sb.sv(53) @ 76700: uvm_test_top.env.sb [SB] Match: A=117 B=209 GCD=1
UVM_INFO src/uvm/agent/gcd_monitor.sv(51) @ 76700: uvm_test_top.env.agent.mon [MON] Observed: A=117 B=209 GCD=1
UVM_INFO src/uvm/env/gcd_sb.sv(53) @ 81100: uvm_test_top.env.sb [SB] Match: A=171 B=199 GCD=1
UVM_INFO src/uvm/agent/gcd_monitor.sv(51) @ 81100: uvm_test_top.env.agent.mon [MON] Observed: A=171 B=199 GCD=1
UVM_INFO src/uvm/env/gcd_sb.sv(53) @ 82100: uvm_test_top.env.sb [SB] Match: A=150 B=75 GCD=75
UVM_INFO src/uvm/agent/gcd_monitor.sv(51) @ 82100: uvm_test_top.env.agent.mon [MON] Observed: A=150 B=75 GCD=75
UVM_INFO src/uvm/env/gcd_sb.sv(53) @ 86500: uvm_test_top.env.sb [SB] Match: A=54 B=227 GCD=1
UVM_INFO src/uvm/agent/gcd_monitor.sv(51) @ 86500: uvm_test_top.env.agent.mon [MON] Observed: A=54 B=227 GCD=1
UVM_INFO src/uvm/env/gcd_sb.sv(53) @ 91500: uvm_test_top.env.sb [SB] Match: A=139 B=52 GCD=1
UVM_INFO src/uvm/agent/gcd_monitor.sv(51) @ 91500: uvm_test_top.env.agent.mon [MON] Observed: A=139 B=52 GCD=1
UVM_INFO src/uvm/env/gcd_sb.sv(53) @ 100100: uvm_test_top.env.sb [SB] Match: A=150 B=154 GCD=2
UVM_INFO src/uvm/agent/gcd_monitor.sv(51) @ 100100: uvm_test_top.env.agent.mon [MON] Observed: A=150 B=154 GCD=2
UVM_INFO src/uvm/env/gcd_sb.sv(53) @ 104500: uvm_test_top.env.sb [SB] Match: A=85 B=141 GCD=1
UVM_INFO src/uvm/agent/gcd_monitor.sv(51) @ 104500: uvm_test_top.env.agent.mon [MON] Observed: A=85 B=141 GCD=1
UVM_INFO src/uvm/env/gcd_sb.sv(53) @ 109900: uvm_test_top.env.sb [SB] Match: A=202 B=147 GCD=1
UVM_INFO src/uvm/agent/gcd_monitor.sv(51) @ 109900: uvm_test_top.env.agent.mon [MON] Observed: A=202 B=147 GCD=1
UVM_INFO src/uvm/env/gcd_sb.sv(53) @ 113300: uvm_test_top.env.sb [SB] Match: A=244 B=84 GCD=4
UVM_INFO src/uvm/agent/gcd_monitor.sv(51) @ 113300: uvm_test_top.env.agent.mon [MON] Observed: A=244 B=84 GCD=4
UVM_INFO src/uvm/env/gcd_sb.sv(53) @ 116900: uvm_test_top.env.sb [SB] Match: A=211 B=251 GCD=1
UVM_INFO src/uvm/agent/gcd_monitor.sv(51) @ 116900: uvm_test_top.env.agent.mon [MON] Observed: A=211 B=251 GCD=1
UVM_INFO src/uvm/env/gcd_sb.sv(53) @ 120500: uvm_test_top.env.sb [SB] Match: A=104 B=183 GCD=1
UVM_INFO src/uvm/agent/gcd_monitor.sv(51) @ 120500: uvm_test_top.env.agent.mon [MON] Observed: A=104 B=183 GCD=1
UVM_INFO src/uvm/env/gcd_sb.sv(53) @ 124700: uvm_test_top.env.sb [SB] Match: A=177 B=45 GCD=3
UVM_INFO src/uvm/agent/gcd_monitor.sv(51) @ 124700: uvm_test_top.env.agent.mon [MON] Observed: A=177 B=45 GCD=3
UVM_INFO src/uvm/env/gcd_sb.sv(53) @ 130300: uvm_test_top.env.sb [SB] Match: A=176 B=137 GCD=1
UVM_INFO src/uvm/agent/gcd_monitor.sv(51) @ 130300: uvm_test_top.env.agent.mon [MON] Observed: A=176 B=137 GCD=1
UVM_INFO src/uvm/env/gcd_sb.sv(53) @ 131900: uvm_test_top.env.sb [SB] Match: A=100 B=160 GCD=20
UVM_INFO src/uvm/agent/gcd_monitor.sv(51) @ 131900: uvm_test_top.env.agent.mon [MON] Observed: A=100 B=160 GCD=20
UVM_INFO src/uvm/env/gcd_sb.sv(53) @ 146700: uvm_test_top.env.sb [SB] Match: A=205 B=202 GCD=1
UVM_INFO src/uvm/agent/gcd_monitor.sv(51) @ 146700: uvm_test_top.env.agent.mon [MON] Observed: A=205 B=202 GCD=1
UVM_INFO src/uvm/env/gcd_sb.sv(53) @ 150300: uvm_test_top.env.sb [SB] Match: A=236 B=175 GCD=1
UVM_INFO src/uvm/agent/gcd_monitor.sv(51) @ 150300: uvm_test_top.env.agent.mon [MON] Observed: A=236 B=175 GCD=1
UVM_INFO src/uvm/env/gcd_sb.sv(53) @ 153700: uvm_test_top.env.sb [SB] Match: A=191 B=122 GCD=1
UVM_INFO src/uvm/agent/gcd_monitor.sv(51) @ 153700: uvm_test_top.env.agent.mon [MON] Observed: A=191 B=122 GCD=1
UVM_INFO src/uvm/env/gcd_sb.sv(53) @ 155300: uvm_test_top.env.sb [SB] Match: A=72 B=45 GCD=9
UVM_INFO src/uvm/agent/gcd_monitor.sv(51) @ 155300: uvm_test_top.env.agent.mon [MON] Observed: A=72 B=45 GCD=9
UVM_INFO src/uvm/env/gcd_sb.sv(53) @ 160500: uvm_test_top.env.sb [SB] Match: A=134 B=199 GCD=1
UVM_INFO src/uvm/agent/gcd_monitor.sv(51) @ 160500: uvm_test_top.env.agent.mon [MON] Observed: A=134 B=199 GCD=1
UVM_INFO src/uvm/env/gcd_sb.sv(53) @ 164100: uvm_test_top.env.sb [SB] Match: A=121 B=26 GCD=1
UVM_INFO src/uvm/agent/gcd_monitor.sv(51) @ 164100: uvm_test_top.env.agent.mon [MON] Observed: A=121 B=26 GCD=1
UVM_INFO src/uvm/env/gcd_sb.sv(53) @ 166900: uvm_test_top.env.sb [SB] Match: A=34 B=130 GCD=2
UVM_INFO src/uvm/agent/gcd_monitor.sv(51) @ 166900: uvm_test_top.env.agent.mon [MON] Observed: A=34 B=130 GCD=2
UVM_INFO src/uvm/env/gcd_sb.sv(53) @ 170700: uvm_test_top.env.sb [SB] Match: A=127 B=163 GCD=1
UVM_INFO src/uvm/agent/gcd_monitor.sv(51) @ 170700: uvm_test_top.env.agent.mon [MON] Observed: A=127 B=163 GCD=1
UVM_INFO src/uvm/env/gcd_sb.sv(53) @ 173700: uvm_test_top.env.sb [SB] Match: A=146 B=172 GCD=2
UVM_INFO src/uvm/agent/gcd_monitor.sv(51) @ 173700: uvm_test_top.env.agent.mon [MON] Observed: A=146 B=172 GCD=2
UVM_INFO src/uvm/env/gcd_sb.sv(53) @ 175900: uvm_test_top.env.sb [SB] Match: A=90 B=155 GCD=5
UVM_INFO src/uvm/agent/gcd_monitor.sv(51) @ 175900: uvm_test_top.env.agent.mon [MON] Observed: A=90 B=155 GCD=5
UVM_INFO src/uvm/env/gcd_sb.sv(53) @ 179700: uvm_test_top.env.sb [SB] Match: A=215 B=69 GCD=1
UVM_INFO src/uvm/agent/gcd_monitor.sv(51) @ 179700: uvm_test_top.env.agent.mon [MON] Observed: A=215 B=69 GCD=1
UVM_INFO src/uvm/env/gcd_sb.sv(53) @ 181500: uvm_test_top.env.sb [SB] Match: A=10 B=3 GCD=1
UVM_INFO src/uvm/agent/gcd_monitor.sv(51) @ 181500: uvm_test_top.env.agent.mon [MON] Observed: A=10 B=3 GCD=1
UVM_INFO src/uvm/env/gcd_sb.sv(53) @ 190900: uvm_test_top.env.sb [SB] Match: A=241 B=122 GCD=1
UVM_INFO src/uvm/agent/gcd_monitor.sv(51) @ 190900: uvm_test_top.env.agent.mon [MON] Observed: A=241 B=122 GCD=1
UVM_INFO src/uvm/env/gcd_sb.sv(53) @ 194700: uvm_test_top.env.sb [SB] Match: A=142 B=217 GCD=1
UVM_INFO src/uvm/agent/gcd_monitor.sv(51) @ 194700: uvm_test_top.env.agent.mon [MON] Observed: A=142 B=217 GCD=1
UVM_INFO src/uvm/env/gcd_sb.sv(53) @ 198500: uvm_test_top.env.sb [SB] Match: A=224 B=30 GCD=2
UVM_INFO src/uvm/agent/gcd_monitor.sv(51) @ 198500: uvm_test_top.env.agent.mon [MON] Observed: A=224 B=30 GCD=2
UVM_INFO src/uvm/env/gcd_sb.sv(53) @ 202500: uvm_test_top.env.sb [SB] Match: A=231 B=74 GCD=1
UVM_INFO src/uvm/agent/gcd_monitor.sv(51) @ 202500: uvm_test_top.env.agent.mon [MON] Observed: A=231 B=74 GCD=1
UVM_INFO src/uvm/env/gcd_sb.sv(53) @ 207500: uvm_test_top.env.sb [SB] Match: A=163 B=49 GCD=1
UVM_INFO src/uvm/agent/gcd_monitor.sv(51) @ 207500: uvm_test_top.env.agent.mon [MON] Observed: A=163 B=49 GCD=1
UVM_INFO src/uvm/env/gcd_sb.sv(53) @ 212700: uvm_test_top.env.sb [SB] Match: A=21 B=43 GCD=1
UVM_INFO src/uvm/agent/gcd_monitor.sv(51) @ 212700: uvm_test_top.env.agent.mon [MON] Observed: A=21 B=43 GCD=1
UVM_INFO src/uvm/env/gcd_sb.sv(53) @ 215300: uvm_test_top.env.sb [SB] Match: A=60 B=224 GCD=4
UVM_INFO src/uvm/agent/gcd_monitor.sv(51) @ 215300: uvm_test_top.env.agent.mon [MON] Observed: A=60 B=224 GCD=4
UVM_INFO src/uvm/env/gcd_sb.sv(53) @ 218100: uvm_test_top.env.sb [SB] Match: A=23 B=78 GCD=1
UVM_INFO src/uvm/agent/gcd_monitor.sv(51) @ 218100: uvm_test_top.env.agent.mon [MON] Observed: A=23 B=78 GCD=1
UVM_INFO src/uvm/env/gcd_sb.sv(53) @ 236100: uvm_test_top.env.sb [SB] Match: A=169 B=254 GCD=1
UVM_INFO src/uvm/agent/gcd_monitor.sv(51) @ 236100: uvm_test_top.env.agent.mon [MON] Observed: A=169 B=254 GCD=1
UVM_INFO src/uvm/env/gcd_sb.sv(53) @ 240100: uvm_test_top.env.sb [SB] Match: A=239 B=58 GCD=1
UVM_INFO src/uvm/agent/gcd_monitor.sv(51) @ 240100: uvm_test_top.env.agent.mon [MON] Observed: A=239 B=58 GCD=1
UVM_INFO src/uvm/env/gcd_sb.sv(53) @ 246100: uvm_test_top.env.sb [SB] Match: A=234 B=94 GCD=2
UVM_INFO src/uvm/agent/gcd_monitor.sv(51) @ 246100: uvm_test_top.env.agent.mon [MON] Observed: A=234 B=94 GCD=2
UVM_INFO src/uvm/env/gcd_sb.sv(53) @ 252900: uvm_test_top.env.sb [SB] Match: A=155 B=149 GCD=1
UVM_INFO src/uvm/agent/gcd_monitor.sv(51) @ 252900: uvm_test_top.env.agent.mon [MON] Observed: A=155 B=149 GCD=1
UVM_INFO src/uvm/env/gcd_sb.sv(53) @ 280500: uvm_test_top.env.sb [SB] Match: A=1 B=135 GCD=1
UVM_INFO src/uvm/agent/gcd_monitor.sv(51) @ 280500: uvm_test_top.env.agent.mon [MON] Observed: A=1 B=135 GCD=1
UVM_INFO src/uvm/env/gcd_sb.sv(53) @ 282700: uvm_test_top.env.sb [SB] Match: A=28 B=50 GCD=2
UVM_INFO src/uvm/agent/gcd_monitor.sv(51) @ 282700: uvm_test_top.env.agent.mon [MON] Observed: A=28 B=50 GCD=2
UVM_INFO src/uvm/env/gcd_sb.sv(53) @ 286500: uvm_test_top.env.sb [SB] Match: A=237 B=31 GCD=1
UVM_INFO src/uvm/agent/gcd_monitor.sv(51) @ 286500: uvm_test_top.env.agent.mon [MON] Observed: A=237 B=31 GCD=1
UVM_INFO src/uvm/env/gcd_sb.sv(53) @ 287900: uvm_test_top.env.sb [SB] Match: A=114 B=152 GCD=38
UVM_INFO src/uvm/agent/gcd_monitor.sv(51) @ 287900: uvm_test_top.env.agent.mon [MON] Observed: A=114 B=152 GCD=38
UVM_INFO src/uvm/env/gcd_sb.sv(53) @ 291500: uvm_test_top.env.sb [SB] Match: A=173 B=248 GCD=1
UVM_INFO src/uvm/agent/gcd_monitor.sv(51) @ 291500: uvm_test_top.env.agent.mon [MON] Observed: A=173 B=248 GCD=1
UVM_INFO src/uvm/env/gcd_sb.sv(53) @ 294700: uvm_test_top.env.sb [SB] Match: A=157 B=109 GCD=1
UVM_INFO src/uvm/agent/gcd_monitor.sv(51) @ 294700: uvm_test_top.env.agent.mon [MON] Observed: A=157 B=109 GCD=1
UVM_INFO src/uvm/env/gcd_sb.sv(53) @ 298100: uvm_test_top.env.sb [SB] Match: A=66 B=155 GCD=1
UVM_INFO src/uvm/agent/gcd_monitor.sv(51) @ 298100: uvm_test_top.env.agent.mon [MON] Observed: A=66 B=155 GCD=1
UVM_INFO src/uvm/env/gcd_sb.sv(53) @ 300300: uvm_test_top.env.sb [SB] Match: A=156 B=132 GCD=12
UVM_INFO src/uvm/agent/gcd_monitor.sv(51) @ 300300: uvm_test_top.env.agent.mon [MON] Observed: A=156 B=132 GCD=12
UVM_INFO src/uvm/env/gcd_sb.sv(53) @ 303700: uvm_test_top.env.sb [SB] Match: A=172 B=128 GCD=4
UVM_INFO src/uvm/agent/gcd_monitor.sv(51) @ 303700: uvm_test_top.env.agent.mon [MON] Observed: A=172 B=128 GCD=4
UVM_INFO src/uvm/env/gcd_sb.sv(53) @ 307700: uvm_test_top.env.sb [SB] Match: A=112 B=54 GCD=2
UVM_INFO src/uvm/agent/gcd_monitor.sv(51) @ 307700: uvm_test_top.env.agent.mon [MON] Observed: A=112 B=54 GCD=2
UVM_INFO src/uvm/env/gcd_sb.sv(53) @ 311500: uvm_test_top.env.sb [SB] Match: A=234 B=212 GCD=2
UVM_INFO src/uvm/agent/gcd_monitor.sv(51) @ 311500: uvm_test_top.env.agent.mon [MON] Observed: A=234 B=212 GCD=2
